{
  "pages": [
    {
      "id": "Send Messages",
      "isDefault": true
    },
    {
      "id": "Customer Data",
      "isDefault": false
    }
  ],
  "viewMode": false,
  "appIsExample": false,
  "unreadCommentThreads": 0,
  "unpublishedApplicationDetail": {
    "appPositioning": {
      "type": "FIXED"
    }
  },
  "color": "#D9E7FF",
  "icon": "website",
  "unpublishedCustomJSLibs": [],
  "publishedCustomJSLibs": [],
  "evaluationVersion": 2,
  "applicationVersion": 2,
  "collapseInvisibleWidgets": true,
  "isManualUpdate": false,
  "deleted": false
}