{
  "unpublishedCollection": {
    "name": "Utils",
    "pageId": "Send Messages",
    "pluginId": "js-plugin",
    "pluginType": "JS",
    "actions": [],
    "archivedActions": [],
    "variables": [],
    "userPermissions": []
  },
  "id": "Send Messages_Utils",
  "deleted": false,
  "gitSyncId": "65dd620e78871a5594d33229_65dd623678871a5594d3324a"
}