{
    "resetFormOnClick": false,
    "boxShadow": "none",
    "mobileBottomRow": 5,
    "widgetName": "Button MLP1",
    "buttonColor": "{{appsmith.theme.colors.primaryColor}}",
    "displayName": "Button MLP",
    "iconSVG": "/static/media/icon.05d209fafeb13a8569e3b4e97069d9ee.svg",
    "searchTags": [
        "click",
        "submit"
    ],
    "topRow": 1,
    "bottomRow": 5,
    "parentRowSpace": 10,
    "type": "BUTTON_MLP_WIDGET",
    "hideCard": false,
    "mobileRightColumn": 17,
    "animateLoading": true,
    "parentColumnSpace": 14.6513671875,
    "dynamicTriggerPathList": [],
    "leftColumn": 1,
    "dynamicBindingPathList": [
        {"key": "buttonColor"},
        {"key": "borderRadius"}
    ],
    "text": "TRY to connet WEB3",
    "isDisabled": false,
    "key": "l5hhhppw57",
    "isDeprecated": false,
    "rightColumn": 17,
    "isDefaultClickDisabled": true,
    "widgetId": "7pq7mxyc76",
    "minWidth": 120,
    "isVisible": true,
    "recaptchaType": "V3",
    "version": 1,
    "parentId": "dwgorigdtp",
    "tags": ["Buttons"],
    "renderMode": "CANVAS",
    "isLoading": false,
    "mobileTopRow": 1,
    "responsiveBehavior": "hug",
    "disabledWhenInvalid": false,
    "borderRadius": "{{appsmith.theme.borderRadius.appBorderRadius}}",
    "mobileLeftColumn": 1,
    "buttonVariant": "PRIMARY",
    "placement": "CENTER"
}